﻿Level,Specilization,Spell,Rank,Mana,Cost mana %,Health,Pet Health/sec,Duration sec,Range,School,Cast Time sec,Dmg low,Dmg high,Dmg,DMG AOE,DOT/1sec,DOT/3sec,DOT/12sec,DOT/15sec,DOT/18sec,DOT/24sec,armor,health/5sec,health/5sec duration min,Talent_multiplyer
40,Destruction,Conflagrate,1,-165,,,,,medium,Fire,0,240,307,,,,,,,,,,,,
48,Destruction,Conflagrate,2,-200,,,,,medium,Fire,0,316,397,,,,,,,,,,,,
54,Destruction,Conflagrate,3,-230,,,,,medium,Fire,0,383,480,,,,,,,,,,,,
60,Destruction,Conflagrate,4,-255,,,,,medium,Fire,0,447,558,,,,,,,,,,,,
4,Affliction,Corruption,1,-35,,,,12,medium,Shadow,2,,,,,,,40,,,,,,,
14,Affliction,Corruption,2,-55,,,,15,medium,Shadow,2,,,,,,,,90,,,,,,
24,Affliction,Corruption,3,-100,,,,18,medium,Shadow,2,,,,,,,,,222,,,,,
34,Affliction,Corruption,4,-160,,,,18,medium,Shadow,2,,,,,,,,,324,,,,,
44,Affliction,Corruption,5,-225,,,,18,medium,Shadow,2,,,,,,,,,486,,,,,
54,Affliction,Corruption,6,-290,,,,18,medium,Shadow,2,,,,,,,,,666,,,,,
60,Affliction,Corruption,7,-340,,,,18,medium,Shadow,2,,,,,,,,,822,,,,,
8,Affliction,Curse of Agony,1,-25,,,,24,medium,Shadow,0,,,,,,,,,,84,,,,
28,Affliction,Curse of Agony,2,-50,,,,24,medium,Shadow,0,,,,,,,,,,180,,,,
38,Affliction,Curse of Agony,3,-90,,,,24,medium,Shadow,0,,,,,,,,,,324,,,,
48,Affliction,Curse of Agony,4,-130,,,,24,medium,Shadow,0,,,,,,,,,,504,,,,
58,Affliction,Curse of Agony,5,-170,,,,24,medium,Shadow,0,,,,,,,,,,780,,,,
60,Affliction,Curse of Agony,6,-215,,,,24,medium,Shadow,0,,,,,,,,,,1044,,,,
20,Affliction,Curse of Agony Improved,1,-25,,,,24,medium,Shadow,0,,,,,,,,,,89.04,,,,1.06
28,Affliction,Curse of Agony Improved,2,-50,,,,24,medium,Shadow,0,,,,,,,,,,190.8,,,,1.06
38,Affliction,Curse of Agony Improved,3,-90,,,,24,medium,Shadow,0,,,,,,,,,,343.44,,,,1.06
48,Affliction,Curse of Agony Improved,4,-130,,,,24,medium,Shadow,0,,,,,,,,,,534.24,,,,1.06
58,Affliction,Curse of Agony Improved,5,-170,,,,24,medium,Shadow,0,,,,,,,,,,826.8,,,,1.06
60,Affliction,Curse of Agony Improved,6,-215,,,,24,medium,Shadow,0,,,,,,,,,,1106.64,,,,1.06
26,Affliction,Curse of Tongues,,,,,,,,,,,,,,,,,,,,,,,
50,Affliction,Curse of Tongues,,,,,,,,,,,,,,,,,,,,,,,
4,Affliction,Curse of Weakness,1,-20,,,,120,medium,Shadow,0,,,-3,,,,,,,,,,,
12,Affliction,Curse of Weakness,2,-35,,,,120,medium,Shadow,0,,,-6,,,,,,,,,,,
22,Affliction,Curse of Weakness,3,-70,,,,120,medium,Shadow,0,,,-10,,,,,,,,,,,
32,Affliction,Curse of Weakness,4,-95,,,,120,medium,Shadow,0,,,-15,,,,,,,,,,,
42,Affliction,Curse of Weakness,5,-130,,,,120,medium,Shadow,0,,,-22,,,,,,,,,,,
52,Affliction,Curse of Weakness,6,-175,,,,120,medium,Shadow,0,,,-31,,,,,,,,,,,
42,Affliction,Death Coil,1,-430,,287,,,medium,Shadow,0,,,287,,,,,,,,,,,
50,Affliction,Death Coil,2,-495,,375,,,medium,Shadow,0,,,375,,,,,,,,,,,
58,Affliction,Death Coil,3,-565,,470,,,medium,Shadow,0,,,470,,,,,,,,,,,
20,Demonology,Demon Armor,1,-275,,,,,Self,Shadow,,,,,,,,,,,,210,7,30,
30,Demonology,Demon Armor,2,-520,,,,,Self,Shadow,,,,,,,,,,,,300,9,30,
40,Demonology,Demon Armor,3,-800,,,,,Self,Shadow,,,,,,,,,,,,390,11,30,
50,Demonology,Demon Armor,4,-1150,,,,,Self,Shadow,,,,,,,,,,,,480,13,30,
60,Demonology,Demon Armor,5,-1580,,,,,Self,Shadow,,,,,,,,,,,,570,15,30,
1,Demonology,Demon Skin,1,-50,,,,1800,Self,Shadow,0,,,,,,,,,,,40,3,30,
10,Demonology,Demon Skin,2,-120,,,,1800,Self,Shadow,0,,,,,,,,,,,120,5,30,
14,Affliction,Drain Life,1,-55,,50,,5,short,Shadow,5,,,,,10,,,,,,,,,
22,Affliction,Drain Life,2,-85,,85,,5,short,Shadow,5,,,,,17,,,,,,,,,
30,Affliction,Drain Life,3,-135,,145,,5,short,Shadow,5,,,,,29,,,,,,,,,
38,Affliction,Drain Life,4,-185,,205,,5,short,Shadow,5,,,,,41,,,,,,,,,
46,Affliction,Drain Life,5,-240,,275,,5,short,Shadow,5,,,,,55,,,,,,,,,
54,Affliction,Drain Life,6,-300,,355,,5,short,Shadow,5,,,,,71,,,,,,,,,
15,Affliction,Drain Life Improved,1,-55,,50,,5,short,Shadow,5,,,,,11,,,,,,,,,
22,Affliction,Drain Life Improved,2,-85,,85,,5,short,Shadow,5,,,,,18.7,,,,,,,,,
30,Affliction,Drain Life Improved,3,-135,,145,,5,short,Shadow,5,,,,,31.9,,,,,,,,,
38,Affliction,Drain Life Improved,4,-185,,205,,5,short,Shadow,5,,,,,45.1,,,,,,,,,
46,Affliction,Drain Life Improved,5,-240,,275,,5,short,Shadow,5,,,,,60.5,,,,,,,,,
54,Affliction,Drain Life Improved,6,-300,,355,,5,short,Shadow,5,,,,,78.1,,,,,,,,,
24,Affliction,Drain Mana,1,115,,,,5,short,Shadow,5,,,,,,,,,,,,,,
34,Affliction,Drain Mana,2,245,,,,5,short,Shadow,5,,,,,,,,,,,,,,
44,Affliction,Drain Mana,3,400,,,,5,short,Shadow,5,,,,,,,,,,,,,,
54,Affliction,Drain Mana,4,585,,,,5,short,Shadow,5,,,,,,,,,,,,,,
10,Affliction,Drain Soul,1,-55,,,,15,medium,Shadow,15,,,,,,,,55,,,,,,
24,Affliction,Drain Soul,2,-125,,,,15,medium,Shadow,15,,,,,,,,155,,,,,,
38,Affliction,Drain Soul,3,-210,,,,15,medium,Shadow,15,,,,,,,,295,,,,,,
52,Affliction,Drain Soul,4,-290,,,,15,medium,Shadow,15,,,,,,,,455,,,,,,
8,Affliction,Fear,1,,0.15,,,,,,,,,,,,,,,,,,,,
32,Affliction,Fear,2,,0.15,,,,,,,,,,,,,,,,,,,,
56,Affliction,Fear,3,,0.15,,,,,,,,,,,,,,,,,,,,
12,Demonology,Health Funnel,1,-11,,,12,10,short,Shadow,10,,,,,,,,,,,,,,
20,Demonology,Health Funnel,2,-15,,,24,10,short,Shadow,10,,,,,,,,,,,,,,
28,Demonology,Health Funnel,3,-24,,,43,10,short,Shadow,10,,,,,,,,,,,,,,
36,Demonology,Health Funnel,4,-39,,,64,10,short,Shadow,10,,,,,,,,,,,,,,
44,Demonology,Health Funnel,5,-45,,,89,10,short,Shadow,10,,,,,,,,,,,,,,
52,Demonology,Health Funnel,6,-62,,,119,10,short,Shadow,10,,,,,,,,,,,,,,
60,Demonology,Health Funnel,7,-79,,,153,10,short,Shadow,10,,,,,,,,,,,,,,
30,Destruction,HellFire,1,-645,,1245,,15,self,Fire,15,,,,1245,83,,,,,,,,,
42,Destruction,HellFire,2,-975,,2085,,15,self,Fire,15,,,,2085,139,,,,,,,,,
54,Destruction,HellFire,3,-1300,,3120,,15,self,Fire,15,,,,3120,208,,,,,,,,,
1,Destruction,Immolate,1,-25,,,,,medium,Fire,2,,,8,,,,,20,,,,,,
10,Destruction,Immolate,2,-45,,,,,medium,Fire,2,,,19,,,,,40,,,,,,
20,Destruction,Immolate,3,-90,,,,,medium,Fire,2,,,45,,,,,90,,,,,,
30,Destruction,Immolate,4,-155,,,,,medium,Fire,2,,,90,,,,,165,,,,,,
40,Destruction,Immolate,5,-220,,,,,medium,Fire,2,,,134,,,,,255,,,,,,
50,Destruction,Immolate,6,-295,,,,,medium,Fire,2,,,192,,,,,365,,,,,,
60,Destruction,Immolate,7,-370,,,,,medium,Fire,2,,,258,,,,,485,,,,,,
6,Affliction,Life Tap,1,20,,-20,,,Self,Shadow,0,,,,,,,,,,,,,,
16,Affliction,Life Tap,2,65,,-65,,,Self,Shadow,0,,,,,,,,,,,,,,
26,Affliction,Life Tap,3,130,,-130,,,Self,Shadow,0,,,,,,,,,,,,,,
36,Affliction,Life Tap,4,210,,-210,,,Self,Shadow,0,,,,,,,,,,,,,,
46,Affliction,Life Tap,5,300,,-300,,,Self,Shadow,0,,,,,,,,,,,,,,
56,Affliction,Life Tap,6,420,,-420,,,Self,Shadow,0,,,,,,,,,,,,,,
20,Destruction,Rain of Fire,1,-295,,,,8,medium,Fire,8,,,,168,,,,,,,,,,
34,Destruction,Rain of Fire,2,-305,,,,8,medium,Fire,8,,,,384,,,,,,,,,,
46,Destruction,Rain of Fire,3,-885,,,,8,medium,Fire,8,,,,620,,,,,,,,,,
58,Destruction,Rain of Fire,4,-1185,,,,8,medium,Fire,8,,,,904,,,,,,,,,,
18,Destruction,Searing Pain,1,-45,,,,,medium,Fire,1.5,34,43,,,,,,,,,,,,
26,Destruction,Searing Pain,2,-68,,,,,medium,Fire,1.5,59,72,,,,,,,,,,,,
34,Destruction,Searing Pain,3,-91,,,,,medium,Fire,1.5,86,105,,,,,,,,,,,,
42,Destruction,Searing Pain,4,-118,,,,,medium,Fire,1.5,122,147,,,,,,,,,,,,
50,Destruction,Searing Pain,5,-141,,,,,medium,Fire,1.5,158,189,,,,,,,,,,,,
58,Destruction,Searing Pain,6,-168,,,,,medium,Fire,1.5,204,241,,,,,,,,,,,,
1,Destruction,Shadow Bolt,1,-25,,,,,medium,Shadow,1.7,12,17,,,,,,,,,,,,
6,Destruction,Shadow Bolt,2,-40,,,,,medium,Shadow,2.2,23,30,,,,,,,,,,,,
12,Destruction,Shadow Bolt,3,-70,,,,,medium,Shadow,2.8,48,57,,,,,,,,,,,,
20,Destruction,Shadow Bolt,4,-110,,,,,medium,Shadow,3,86,99,,,,,,,,,,,,
28,Destruction,Shadow Bolt,5,-160,,,,,medium,Shadow,3,142,163,,,,,,,,,,,,
36,Destruction,Shadow Bolt,6,-210,,,,,medium,Shadow,3,204,213,,,,,,,,,,,,
44,Destruction,Shadow Bolt,7,-265,,,,,medium,Shadow,3,281,316,,,,,,,,,,,,
52,Destruction,Shadow Bolt,8,-315,,,,,medium,Shadow,3,360,403,,,,,,,,,,,,
60,Destruction,Shadow Bolt,9,-370,,,,,medium,Shadow,3,455,508,,,,,,,,,,,,
32,Demonology,Shadow Ward,1,-135,,,,,,,0,,,-290,,,,,,,,,,,
42,Demonology,Shadow Ward,2,-470,,,,,,,0,,,-470,,,,,,,,,,,
52,Demonology,Shadow Ward,3,-255,,,,,,,0,,,-675,,,,,,,,,,,
60,Demonology,Shadow Ward,4,-320,,,,,,,0,,,-920,,,,,,,,,,,
20,Destruction,Shadowburn,1,-105,,,,5,short,Shadow,0,87,100,,,,,,,,,,,,
24,Destruction,Shadowburn,2,-130,,,,5,short,Shadow,0,115,132,,,,,,,,,,,,
32,Destruction,Shadowburn,3,-190,,,,5,short,Shadow,0,186,211,,,,,,,,,,,,
40,Destruction,Shadowburn,4,-245,,,,5,short,Shadow,0,261,294,,,,,,,,,,,,
48,Destruction,Shadowburn,5,-305,,,,5,short,Shadow,0,350,393,,,,,,,,,,,,
56,Destruction,Shadowburn,6,-365,,,,5,short,Shadow,0,450,503,,,,,,,,,,,,
48,Destruction,Soul Fire,1,-305,,,,,medium,Fire,6,623,784,,,,,,,,,,,,
56,Destruction,Soul Fire,2,-335,,,,,medium,Fire,6,703,882,,,,,,,,,,,,
30,Demonology,Summon Felhunter,1,,1,,,,,,10,,,,,,,,,,,,,,
1,Demonology,Summon Imp,1,0,0.8,,,,Self,Shadow,10,,,,,,,,,,,,,,
20,Demonology,Summon Succubus,1,,1,,,,,,10,,,,,,,,,,,,,,
10,Demonology,Summon Voidwalker,1,0,1,,,,,,10,,,,,,,,,,,,,,
30,Affliction,Siphon Life,1,-150,,15,,30,medium,Shadow,0,,,,,,15,,,,,,,,
38,Affliction,Siphon Life,2,-205,,22,,30,medium,Shadow,0,,,,,,22,,,,,,,,
48,Affliction,Siphon Life,3,-285,,33,,30,medium,Shadow,0,,,,,,33,,,,,,,,
58,Affliction,Siphon Life,4,-365,,45,,30,medium,Shadow,0,,,,,,45,,,,,,,,
10,Talent Affliction,Improved Corruption,1,,,,,,,,-0.4,,,,,,,,,,,,,,
11,Talent Affliction,Improved Corruption,2,,,,,,,,-0.8,,,,,,,,,,,,,,
12,Talent Affliction,Improved Corruption,3,,,,,,,,-1.2,,,,,,,,,,,,,,
13,Talent Affliction,Improved Corruption,4,,,,,,,,-1.6,,,,,,,,,,,,,,
14,Talent Affliction,Improved Corruption,5,,,,,,,,-2,,,,,,,,,,,,,,
15,Talent Affliction,Improved Drain Life,,,,,,,,,,,,0.02,,,,,,,,,,,
16,Talent Affliction,Improved Drain Life,,,,,,,,,,,,0.04,,,,,,,,,,,
17,Talent Affliction,Improved Drain Life,,,,,,,,,,,,0.06,,,,,,,,,,,
18,Talent Affliction,Improved Drain Life,,,,,,,,,,,,0.08,,,,,,,,,,,
19,Talent Affliction,Improved Drain Life,,,,,,,,,,,,0.1,,,,,,,,,,,
15,Talent Affliction,Improved Curse of Weakness,,,,,,,,,,,,0.06,,,,,,,,,,,
16,Talent Affliction,Improved Curse of Weakness,,,,,,,,,,,,0.13,,,,,,,,,,,
17,Talent Affliction,Improved Curse of Weakness,,,,,,,,,,,,0.2,,,,,,,,,,,
20,Talent Affliction,Improved Curse of Agony,,,,,,,,,,,,0.02,,,,,,,,,,,
21,Talent Affliction,Improved Curse of Agony,,,,,,,,,,,,0.04,,,,,,,,,,,
22,Talent Affliction,Improved Curse of Agony,,,,,,,,,,,,0.06,,,,,,,,,,,
20,Talent Affliction,Amplify Curse,,,,,,,,,,,,0.2,,,,,,,,,,,
35,Talent Affliction,Shadow Mastery,,,,,,,,,,,,0.02,,,,,,,,,,,
36,Talent Affliction,Shadow Mastery,,,,,,,,,,,,0.04,,,,,,,,,,,
37,Talent Affliction,Shadow Mastery,,,,,,,,,,,,0.08,,,,,,,,,,,
38,Talent Affliction,Shadow Mastery,,,,,,,,,,,,0.1,,,,,,,,,,,
39,Talent Affliction,Shadow Mastery,,,,,,,,,,,,,,,,,,,,,,,